{
  "request": {
    "country": "uk",
    "language": "en",
    "location": "london",
    "num_res": "20",
    "offset": 0,
    "output": "json_xs",
    "page": 1,
    "pretty": "1",
    "product_type": "realestate",
    "property_type": "property",
    "size_type": "net",
    "size_unit": "m2",
    "sort": "nestoria_rank",
    "listing_type": "buy"
  },
  "response": {
    "application_response_code": "100",
    "application_response_text": "listings returned for one unambiguous location",
    "attribution": {
      "img_height": 22,
      "img_url": "http://resources.nestimg.com/nestoria/img/pbr_v1.png",
      "img_width": 183,
      "link_to_img": "http://www.nestoria.com"
    },
    "created_http": "Thu, 11 Aug 2016 04:04:58 GMT",
    "created_unix": 1470888298,
    "link_to_url": "http://www.nestoria.co.uk/london/property/buy",
    "listings": [
      {
        "bathroom_number": 1,
        "bedroom_number": 1,
        "car_spaces": 0,
        "commission": 0,
        "construction_year": 0,
        "datasource_name": "Zoopla",
        "floor": 2,
        "img_height": 255,
        "img_url": "http://imgs.nestimg.com/flat_london_3000009467536102613.jpg",
        "img_width": 340,
        "keywords": "Garden, Needs Modernisation",
        "latitude": 51.53277,
        "lister_name": "Harris",
        "lister_url": "http://www.nestoria.co.uk/detail/0000003000009467536102613/title/5/1-1?serpUid=&pt=1&ot=1&l=london&did=57_default&utm_source=api&utm_medium=external",
        "listing_type": "buy",
        "location_accuracy": 9,
        "longitude": -0.205065,
        "price": 565000,
        "price_currency": "£",
        "price_formatted": "£565,000",
        "price_high": 565000,
        "price_low": 565000,
        "price_type": "fixed",
        "property_type": "flat",
        "size": 0,
        "size_type": "net",
        "summary": "Commercial a1 unit together with residential flats arranged on the ...",
        "thumb_height": 60,
        "thumb_url": "http://imgs.nestimg.com/medium/flat_london_3000009467536102613.jpg",
        "thumb_width": 80,
        "title": "Kilburn Lane, Garden Flat., London W9",
        "updated_in_days": 1,
        "updated_in_days_formatted": "first seen yesterday"
      },
      {
        "bathroom_number": 0,
        "bedroom_number": 1,
        "car_spaces": 0,
        "commission": 0,
        "construction_year": 0,
        "datasource_name": "PrimeLocation",
        "img_height": 186,
        "img_url": "http://imgs.nestimg.com/flat_london_1150029466938750585.jpg",
        "img_width": 248,
        "keywords": "Gym, Sauna",
        "latitude": 51.509476,
        "lister_name": "Kingsley Hamilton Estates",
        "lister_url": "http://www.nestoria.co.uk/detail/0000001150029466938750585/title/5/1-2?serpUid=&pt=1&ot=1&l=london&did=69_high1&utm_source=api&utm_medium=external",
        "listing_type": "buy",
        "location_accuracy": 9,
        "longitude": 0.005646,
        "price": 390000,
        "price_currency": "£",
        "price_formatted": "£390,000",
        "price_high": 390000,
        "price_low": 390000,
        "price_type": "fixed",
        "property_type": "flat",
        "size": 0,
        "size_type": "net",
        "summary": "Key features: studio apartment high-spec finish- 1600 residential u...",
        "thumb_height": 60,
        "thumb_url": "http://imgs.nestimg.com/medium/flat_london_1150029466938750585.jpg",
        "thumb_width": 80,
        "title": "London City Island, Orchard Place, United Kingdom E14",
        "updated_in_days": 5,
        "updated_in_days_formatted": "first seen 5 days ago"
      },
      {
        "bathroom_number": 0,
        "bedroom_number": 7,
        "car_spaces": 0,
        "commission": 0,
        "construction_year": 0,
        "datasource_name": "NetHousePrices",
        "img_height": 300,
        "img_url": "http://imgs.nestimg.com/flat_3320035457637504489.jpg",
        "img_width": 400,
        "keywords": "Garden, Terrace",
        "latitude": 51.49791,
        "lister_name": "Foxtons",
        "lister_url": "http://www.nestoria.co.uk/detail/0000003320035457637504489/title/5/1-3?serpUid=&pt=1&ot=1&l=london&did=90_high1&utm_source=api&utm_medium=external",
        "listing_type": "buy",
        "location_accuracy": 9,
        "longitude": -0.1041828,
        "price": 2000000,
        "price_currency": "£",
        "price_formatted": "£2,000,000",
        "price_high": 2000000,
        "price_low": 2000000,
        "price_type": "fixed",
        "property_type": "flat",
        "size": 0,
        "size_type": "net",
        "summary": "Enviably located on london road, this grand seven bedroom house set...",
        "thumb_height": 60,
        "thumb_url": "http://imgs.nestimg.com/medium/flat_3320035457637504489.jpg",
        "thumb_width": 80,
        "title": "London Road Se1 - Terrace, Garden",
        "updated_in_days": 6,
        "updated_in_days_formatted": "first seen 6 days ago"
      },
      {
        "bathroom_number": 0,
        "bedroom_number": 2,
        "car_spaces": 0,
        "commission": 0,
        "construction_year": 0,
        "datasource_name": "OnTheMarket.com",
        "floor": 0,
        "img_height": 300,
        "img_url": "http://imgs.nestimg.com/2_bedroom_flat_7670118464962200637.jpg",
        "img_width": 400,
        "keywords": "Ex Local Auth",
        "latitude": 51.501,
        "lister_name": "Acorn",
        "lister_url": "http://www.nestoria.co.uk/detail/0000007670118464962200637/title/5/1-4?serpUid=&pt=1&ot=1&l=london&did=105_high1&utm_source=api&utm_medium=external",
        "listing_type": "buy",
        "location_accuracy": 9,
        "longitude": -0.083255,
        "price": 525000,
        "price_currency": "£",
        "price_formatted": "£525,000",
        "price_high": 525000,
        "price_low": 525000,
        "price_type": "fixed",
        "property_type": "flat",
        "size": 0,
        "size_type": "net",
        "summary": "A rare opportunity to acquire a two bedroom, ground floor ex local ...",
        "thumb_height": 60,
        "thumb_url": "http://imgs.nestimg.com/medium/2_bedroom_flat_7670118464962200637.jpg",
        "thumb_width": 80,
        "title": "Bermondsey Street London Se1",
        "updated_in_days": 43,
        "updated_in_days_formatted": "first seen over a month ago"
      },
      {
        "bathroom_number": 2,
        "bedroom_number": 2,
        "car_spaces": 0,
        "commission": 0,
        "construction_year": 0,
        "datasource_name": "SmartNewHomes",
        "img_height": 178,
        "img_url": "http://imgs.nestimg.com/flat_london_1750059469783704400.jpg",
        "img_width": 237,
        "keywords": "",
        "latitude": 51.511856,
        "lister_url": "http://www.nestoria.co.uk/detail/0000001750059469783704400/title/5/1-5?serpUid=&pt=1&ot=1&l=london&did=39_default&utm_source=api&utm_medium=external",
        "listing_type": "buy",
        "location_accuracy": 9,
        "longitude": -0.035813,
        "price": 699950,
        "price_currency": "£",
        "price_formatted": "£699,950",
        "price_high": 699950,
        "price_low": 699950,
        "price_type": "fixed",
        "property_type": "flat",
        "size": 0,
        "size_type": "net",
        "summary": "Be the first to own this brand new apartment in the recently comple...",
        "thumb_height": 60,
        "thumb_url": "http://imgs.nestimg.com/medium/flat_london_1750059469783704400.jpg",
        "thumb_width": 80,
        "title": "Limehouse Basin, Limehouse London E14",
        "updated_in_days": 11,
        "updated_in_days_formatted": "first seen last week"
      },
      {
        "bathroom_number": 0,
        "bedroom_number": 3,
        "car_spaces": 0,
        "commission": 0,
        "construction_year": 0,
        "datasource_name": "Home.co.uk",
        "img_height": 84,
        "img_url": "http://imgs.nestimg.com/flatapartment_8500031457713108539.jpg",
        "img_width": 133,
        "keywords": "",
        "latitude": 51.504148,
        "lister_name": "Cbre",
        "lister_url": "http://www.nestoria.co.uk/detail/0000008500031457713108539/title/5/1-6?serpUid=&pt=1&ot=1&l=london&did=85_default&utm_source=api&utm_medium=external",
        "listing_type": "buy",
        "location_accuracy": 7,
        "longitude": -0.055704,
        "price": 1724950,
        "price_currency": "£",
        "price_formatted": "£1,724,950",
        "price_high": 1724950,
        "price_low": 1724950,
        "price_type": "fixed",
        "property_type": "flat",
        "size": 0,
        "size_type": "net",
        "summary": "A three bedroom premier apartment in an exciting new development in...",
        "thumb_height": 60,
        "thumb_url": "http://imgs.nestimg.com/medium/flatapartment_8500031457713108539.jpg",
        "thumb_width": 80,
        "title": "London Dock, Wapping, E1w",
        "updated_in_days": 31,
        "updated_in_days_formatted": "first seen over a month ago"
      },
      {
        "bathroom_number": 0,
        "bedroom_number": 1,
        "car_spaces": 0,
        "commission": 0,
        "construction_year": 0,
        "datasource_name": "The House Shop",
        "img_height": 184,
        "img_url": "http://imgs.nestimg.com/flat_lavender_hill_7420117470734123824.jpg",
        "img_width": 245,
        "keywords": "Terrace, Kitchen",
        "latitude": 51.46596,
        "lister_name": "Bairstow Eves",
        "lister_url": "http://www.nestoria.co.uk/detail/0000007420117470734123824/title/5/1-7?serpUid=&pt=1&ot=1&l=london&did=71_default&utm_source=api&utm_medium=external",
        "listing_type": "buy",
        "location_accuracy": 7,
        "longitude": -0.152544,
        "price": 420000,
        "price_currency": "£",
        "price_formatted": "£420,000",
        "price_high": 420000,
        "price_low": 420000,
        "price_type": "fixed",
        "property_type": "flat",
        "size": 0,
        "size_type": "net",
        "summary": "Ideal first time purchase private roof terrace close proximity to c...",
        "thumb_height": 60,
        "thumb_url": "http://imgs.nestimg.com/medium/flat_lavender_hill_7420117470734123824.jpg",
        "thumb_width": 80,
        "title": "D, Lavender Hill Battersea London",
        "updated_in_days": 1,
        "updated_in_days_formatted": "first seen yesterday"
      },
      {
        "bathroom_number": 1,
        "bedroom_number": 2,
        "car_spaces": 0,
        "commission": 0,
        "construction_year": 0,
        "datasource_name": "Zoopla",
        "img_height": 185,
        "img_url": "http://imgs.nestimg.com/flat_mitcham_junction_mitcham_7200008470733861771.jpg",
        "img_width": 247,
        "keywords": "Garden, Victorian, Kitchen",
        "latitude": 51.3838,
        "lister_name": "Lantana Estates",
        "lister_url": "http://www.nestoria.co.uk/detail/0000007200008470733861771/title/5/1-8?serpUid=&pt=1&ot=1&l=london&did=57_default&utm_source=api&utm_medium=external",
        "listing_type": "buy",
        "location_accuracy": 9,
        "longitude": -0.157653,
        "price": 300000,
        "price_currency": "£",
        "price_formatted": "£300,000",
        "price_high": 300000,
        "price_low": 300000,
        "price_type": "fixed",
        "property_type": "flat",
        "size": 0,
        "size_type": "net",
        "summary": "Newly converted 2 bedroom garden flat. The property is currently be...",
        "thumb_height": 60,
        "thumb_url": "http://imgs.nestimg.com/medium/flat_mitcham_junction_mitcham_7200008470733861771.jpg",
        "thumb_width": 80,
        "title": "London Road, Mitcham Junction, Mitcham Cr4",
        "updated_in_days": 1,
        "updated_in_days_formatted": "first seen yesterday"
      },
      {
        "bathroom_number": 1,
        "bedroom_number": 3,
        "car_spaces": 0,
        "commission": 0,
        "construction_year": 0,
        "datasource_name": "Zoopla",
        "img_height": 255,
        "img_url": "http://imgs.nestimg.com/semi_detached_mitcham_8800008466939392059.jpg",
        "img_width": 340,
        "keywords": "Garden, Garage, Kitchen, Loft, Patio, Reception",
        "latitude": 51.396854,
        "lister_name": "Purplebricks",
        "lister_url": "http://www.nestoria.co.uk/detail/0000008800008466939392059/title/5/1-9?serpUid=&pt=1&ot=1&l=london&did=57_default&utm_source=api&utm_medium=external",
        "listing_type": "buy",
        "location_accuracy": 9,
        "longitude": -0.173517,
        "price": 525000,
        "price_currency": "£",
        "price_formatted": "£525,000",
        "price_high": 525000,
        "price_low": 525000,
        "price_type": "fixed",
        "property_type": "house",
        "size": 0,
        "size_type": "net",
        "summary": "A three bedroom semi-detached house with two receptions, large kitc...",
        "thumb_height": 60,
        "thumb_url": "http://imgs.nestimg.com/medium/semi_detached_mitcham_8800008466939392059.jpg",
        "thumb_width": 80,
        "title": "London Road, Mitcham Cr4 - Garden",
        "updated_in_days": 4,
        "updated_in_days_formatted": "first seen 4 days ago"
      },
      {
        "bathroom_number": 0,
        "bedroom_number": 2,
        "car_spaces": 0,
        "commission": 0,
        "construction_year": 0,
        "datasource_name": "PrimeLocation",
        "img_height": 219,
        "img_url": "http://imgs.nestimg.com/flat_kingston_upon_thames_4670026466857658405.jpg",
        "img_width": 292,
        "keywords": "Leasehold, En suite, Purpose Built, Kitchen, Reception, Modern",
        "latitude": 51.41189,
        "lister_name": "Barnard Marcus",
        "lister_url": "http://www.nestoria.co.uk/detail/0000004670026466857658405/title/5/1-10?serpUid=&pt=1&ot=1&l=london&did=69_high1&utm_source=api&utm_medium=external",
        "listing_type": "buy",
        "location_accuracy": 9,
        "longitude": -0.289829,
        "price": 425000,
        "price_currency": "£",
        "price_formatted": "£425,000",
        "price_high": 425000,
        "price_low": 425000,
        "price_type": "fixed",
        "property_type": "flat",
        "size": 0,
        "size_type": "net",
        "summary": "This well-proportioned, large, two double bedroom modern purpose bu...",
        "thumb_height": 60,
        "thumb_url": "http://imgs.nestimg.com/medium/flat_kingston_upon_thames_4670026466857658405.jpg",
        "thumb_width": 80,
        "title": "London Road, Kingston Upon Thames Kt2",
        "updated_in_days": 4,
        "updated_in_days_formatted": "first seen 4 days ago"
      },
      {
        "bathroom_number": 3,
        "bedroom_number": 3,
        "car_spaces": 0,
        "commission": 0,
        "construction_year": 0,
        "datasource_name": "PrimeLocation",
        "floor": 4,
        "img_height": 253,
        "img_url": "http://imgs.nestimg.com/flat_7620004463476348492.jpg",
        "img_width": 337,
        "keywords": "Terrace, Gym, Sauna, Kitchen, Porter",
        "latitude": 51.530247,
        "lister_name": "Urban Spaces",
        "lister_url": "http://www.nestoria.co.uk/detail/0000007620004463476348492/title/5/1-11?serpUid=&pt=1&ot=1&l=london&did=69_high1&utm_source=api&utm_medium=external",
        "listing_type": "buy",
        "location_accuracy": 9,
        "longitude": -0.09975258,
        "price": 2950000,
        "price_currency": "£",
        "price_formatted": "£2,950,000",
        "price_high": 2950000,
        "price_low": 2950000,
        "price_type": "fixed",
        "property_type": "flat",
        "size": 0,
        "size_type": "net",
        "summary": "A three bedroom apartment positioned on the twenty-fourth floor of ...",
        "thumb_height": 60,
        "thumb_url": "http://imgs.nestimg.com/medium/flat_7620004463476348492.jpg",
        "thumb_width": 80,
        "title": "City Road London Ec1v - Sauna, Porter",
        "updated_in_days": 33,
        "updated_in_days_formatted": "first seen over a month ago"
      },
      {
        "bathroom_number": 1,
        "bedroom_number": 3,
        "car_spaces": 0,
        "commission": 0,
        "construction_year": 0,
        "datasource_name": "Zoopla",
        "img_height": 249,
        "img_url": "http://imgs.nestimg.com/maisonette_london_2280010466588957661.jpg",
        "img_width": 332,
        "keywords": "Garden, Maisonette, Kitchen, Modern",
        "latitude": 51.536266,
        "lister_url": "http://www.nestoria.co.uk/detail/0000002280010466588957661/title/5/1-12?serpUid=&pt=1&ot=1&l=london&did=57_default&utm_source=api&utm_medium=external",
        "listing_type": "buy",
        "location_accuracy": 9,
        "longitude": -0.068966,
        "price": 499500,
        "price_currency": "£",
        "price_formatted": "£499,500",
        "price_high": 499500,
        "price_low": 499500,
        "price_type": "fixed",
        "property_type": "house",
        "size": 0,
        "size_type": "net",
        "summary": "Reduced as the vendors preferred agent, carrington gray are excited...",
        "thumb_height": 60,
        "thumb_url": "http://imgs.nestimg.com/medium/maisonette_london_2280010466588957661.jpg",
        "thumb_width": 80,
        "title": "Pownall Road, Hackney/london E8",
        "updated_in_days": 11,
        "updated_in_days_formatted": "first seen last week"
      },
      {
        "bathroom_number": 1,
        "bedroom_number": 3,
        "car_spaces": 0,
        "commission": 0,
        "construction_year": 0,
        "datasource_name": "PrimeLocation",
        "img_height": 249,
        "img_url": "http://imgs.nestimg.com/maisonette_london_2640028466588377718.jpg",
        "img_width": 332,
        "keywords": "Garden, Maisonette, Kitchen, Modern",
        "latitude": 51.536266,
        "lister_url": "http://www.nestoria.co.uk/detail/0000002640028466588377718/title/5/1-13?serpUid=&pt=1&ot=1&l=london&did=69_default&utm_source=api&utm_medium=external",
        "listing_type": "buy",
        "location_accuracy": 9,
        "longitude": -0.068966,
        "price": 499500,
        "price_currency": "£",
        "price_formatted": "£499,500",
        "price_high": 499500,
        "price_low": 499500,
        "price_type": "fixed",
        "property_type": "house",
        "size": 0,
        "size_type": "net",
        "summary": "Reduced as the vendors preferred agent, carrington gray are excited...",
        "thumb_height": 60,
        "thumb_url": "http://imgs.nestimg.com/medium/maisonette_london_2640028466588377718.jpg",
        "thumb_width": 80,
        "title": "Pownall Road, Hackney/london E8",
        "updated_in_days": 11,
        "updated_in_days_formatted": "first seen last week"
      },
      {
        "bathroom_number": 1,
        "bedroom_number": 0,
        "car_spaces": 0,
        "commission": 0,
        "construction_year": 0,
        "datasource_name": "Zoopla",
        "floor": 3,
        "img_height": 239,
        "img_url": "http://imgs.nestimg.com/studio_6990034457722477390.jpg",
        "img_width": 340,
        "keywords": "Garden, Kitchen, Porter",
        "latitude": 51.533558,
        "lister_url": "http://www.nestoria.co.uk/detail/0000006990034457722477390/title/5/1-14?serpUid=&pt=1&ot=1&l=london&did=57_default&utm_source=api&utm_medium=external",
        "listing_type": "buy",
        "location_accuracy": 9,
        "longitude": -0.1229495,
        "price": 595000,
        "price_currency": "£",
        "price_formatted": "£595,000",
        "price_high": 595000,
        "price_low": 595000,
        "price_type": "fixed",
        "property_type": "flat",
        "size": 0,
        "size_type": "net",
        "summary": "A third floor, studio apartment within the heart of the vibrant and...",
        "thumb_height": 60,
        "thumb_url": "http://imgs.nestimg.com/medium/studio_6990034457722477390.jpg",
        "thumb_width": 80,
        "title": "Handyside Street Freshwater Apartments London, King's Cross N1c",
        "updated_in_days": 11,
        "updated_in_days_formatted": "first seen last week"
      },
      {
        "bathroom_number": 0,
        "bedroom_number": 7,
        "car_spaces": 0,
        "commission": 0,
        "construction_year": 0,
        "datasource_name": "Zoopla",
        "floor": 7,
        "img_height": 255,
        "img_url": "http://imgs.nestimg.com/flat_6010011468231121532.jpg",
        "img_width": 340,
        "keywords": "Leasehold, Penthouse, Gym, Kitchen, Porter, Parking, Reception",
        "latitude": 51.517513,
        "lister_name": "Vival",
        "lister_url": "http://www.nestoria.co.uk/detail/0000006010011468231121532/title/5/1-15?serpUid=&pt=1&ot=1&l=london&did=57_default&utm_source=api&utm_medium=external",
        "listing_type": "buy",
        "location_accuracy": 9,
        "longitude": -0.13726272,
        "price": 4990000,
        "price_currency": "£",
        "price_formatted": "£4,990,000",
        "price_high": 4990000,
        "price_low": 4990000,
        "price_type": "fixed",
        "property_type": "flat",
        "size": 0,
        "size_type": "net",
        "summary": "An opportunity to purchase a three bedroom penthouse in the fitzroy...",
        "thumb_height": 60,
        "thumb_url": "http://imgs.nestimg.com/medium/flat_6010011468231121532.jpg",
        "thumb_width": 80,
        "title": "Pearson Square London W1t - Gym",
        "updated_in_days": 30,
        "updated_in_days_formatted": "first seen over a month ago"
      },
      {
        "bathroom_number": 3,
        "bedroom_number": 2,
        "car_spaces": 0,
        "commission": 0,
        "construction_year": 0,
        "datasource_name": "Zoopla",
        "floor": 4,
        "img_height": 252,
        "img_url": "http://imgs.nestimg.com/flat_9050009469967064515.jpg",
        "img_width": 336,
        "keywords": "En suite, Penthouse, Terrace, Fireplace, Gym, Wood Floor, Kitchen, Lift, Porter, Parking",
        "latitude": 51.494053,
        "lister_name": "Londondom",
        "lister_url": "http://www.nestoria.co.uk/detail/0000009050009469967064515/title/5/1-16?serpUid=&pt=1&ot=1&l=london&did=57_default&utm_source=api&utm_medium=external",
        "listing_type": "buy",
        "location_accuracy": 9,
        "longitude": -0.15016496,
        "price": 8250000,
        "price_currency": "£",
        "price_formatted": "£8,250,000",
        "price_high": 8250000,
        "price_low": 8250000,
        "price_type": "fixed",
        "property_type": "flat",
        "size": 0,
        "size_type": "net",
        "summary": "Newly built lateral penthouse apartment in a luxury development wit...",
        "thumb_height": 60,
        "thumb_url": "http://imgs.nestimg.com/medium/flat_9050009469967064515.jpg",
        "thumb_width": 80,
        "title": "Flat for sale, London Sw1w - Lift",
        "updated_in_days": 10,
        "updated_in_days_formatted": "first seen last week"
      },
      {
        "bathroom_number": 2,
        "bedroom_number": 2,
        "car_spaces": 0,
        "commission": 0,
        "construction_year": 0,
        "datasource_name": "Zoopla",
        "floor": 5,
        "img_height": 195,
        "img_url": "http://imgs.nestimg.com/flat_8090011469783491502.jpg",
        "img_width": 261,
        "keywords": "Kitchen, Porter, Swimming Pool, Modern",
        "latitude": 51.505764,
        "lister_name": "Docklands",
        "lister_url": "http://www.nestoria.co.uk/detail/0000008090011469783491502/title/5/1-17?serpUid=&pt=1&ot=1&l=london&did=57_default&utm_source=api&utm_medium=external",
        "listing_type": "buy",
        "location_accuracy": 9,
        "longitude": -0.060801737,
        "price": 1499950,
        "price_currency": "£",
        "price_formatted": "£1,499,950",
        "price_high": 1499950,
        "price_low": 1499950,
        "price_type": "fixed",
        "property_type": "flat",
        "size": 0,
        "size_type": "net",
        "summary": "This 1,108 sq ft 2 bedroom, 2 bathroom apartment on the 5th floor i...",
        "thumb_height": 60,
        "thumb_url": "http://imgs.nestimg.com/medium/flat_8090011469783491502.jpg",
        "thumb_width": 80,
        "title": "Clipper Wharf London Dock, Pennington Street, Wapping E1w",
        "updated_in_days": 12,
        "updated_in_days_formatted": "first seen last week"
      },
      {
        "bathroom_number": 2,
        "bedroom_number": 4,
        "car_spaces": 0,
        "commission": 0,
        "construction_year": 0,
        "datasource_name": "PrimeLocation",
        "floor": 2,
        "img_height": 255,
        "img_url": "http://imgs.nestimg.com/flat_london_6630121469676391949.jpg",
        "img_width": 340,
        "keywords": "Share of Freehold, Shared Garden, Terrace, Balcony, Parking",
        "latitude": 51.53539,
        "lister_name": "Laurence Leigh",
        "lister_url": "http://www.nestoria.co.uk/detail/0000006630121469676391949/title/5/1-18?serpUid=&pt=1&ot=1&l=london&did=69_high1&utm_source=api&utm_medium=external",
        "listing_type": "buy",
        "location_accuracy": 9,
        "longitude": -0.165035,
        "price": 3000000,
        "price_currency": "£",
        "price_formatted": "£3,000,000",
        "price_high": 3000000,
        "price_low": 3000000,
        "price_type": "fixed",
        "property_type": "flat",
        "size": 0,
        "size_type": "net",
        "summary": "A and bright four bedroom family apartment situated on the second f...",
        "thumb_height": 60,
        "thumb_url": "http://imgs.nestimg.com/medium/flat_london_6630121469676391949.jpg",
        "thumb_width": 80,
        "title": "London House, Avenue Road Nw8",
        "updated_in_days": 14,
        "updated_in_days_formatted": "first seen 2 weeks ago"
      },
      {
        "bathroom_number": 2,
        "bedroom_number": 2,
        "car_spaces": 0,
        "commission": 0,
        "construction_year": 0,
        "datasource_name": "PrimeLocation",
        "img_height": 255,
        "img_url": "http://imgs.nestimg.com/flat_london_1310021463744226093.jpg",
        "img_width": 340,
        "keywords": "En suite, Reception",
        "latitude": 51.514633,
        "lister_name": "Hamptons",
        "lister_url": "http://www.nestoria.co.uk/detail/0000001310021463744226093/title/5/1-19?serpUid=&pt=1&ot=1&l=london&did=69_high1&utm_source=api&utm_medium=external",
        "listing_type": "buy",
        "location_accuracy": 9,
        "longitude": -0.109098,
        "price": 1095000,
        "price_currency": "£",
        "price_formatted": "£1,095,000",
        "price_high": 1095000,
        "price_low": 1095000,
        "price_type": "fixed",
        "property_type": "flat",
        "size": 0,
        "size_type": "net",
        "summary": "Set within a small boutique development with an facade is this two ...",
        "thumb_height": 60,
        "thumb_url": "http://imgs.nestimg.com/medium/flat_london_1310021463744226093.jpg",
        "thumb_width": 80,
        "title": "Red Lion Court, City Of London Ec4a",
        "updated_in_days": 82,
        "updated_in_days_formatted": "first seen over a month ago"
      },
      {
        "bathroom_number": 1,
        "bedroom_number": 1,
        "car_spaces": 0,
        "commission": 0,
        "construction_year": 0,
        "datasource_name": "PrimeLocation",
        "floor": 2,
        "img_height": 255,
        "img_url": "http://imgs.nestimg.com/flat_2450129467902539469.jpg",
        "img_width": 340,
        "keywords": "Furnished, Balcony, Porter, Parking",
        "latitude": 51.517513,
        "lister_name": "Buy London Flat",
        "lister_url": "http://www.nestoria.co.uk/detail/0000002450129467902539469/title/5/1-20?serpUid=&pt=1&ot=1&l=london&did=69_high1&utm_source=api&utm_medium=external",
        "listing_type": "buy",
        "location_accuracy": 9,
        "longitude": -0.13726272,
        "price": 1195000,
        "price_currency": "£",
        "price_formatted": "£1,195,000",
        "price_high": 1195000,
        "price_low": 1195000,
        "price_type": "fixed",
        "property_type": "flat",
        "size": 0,
        "size_type": "net",
        "summary": "Luxury 1-bed apartment located on the 2nd floor, with a private bal...",
        "thumb_height": 60,
        "thumb_url": "http://imgs.nestimg.com/medium/flat_2450129467902539469.jpg",
        "thumb_width": 80,
        "title": "Flat for sale, London W1t - Furnished",
        "updated_in_days": 34,
        "updated_in_days_formatted": "first seen over a month ago"
      }
    ],
    "locations": [
      {
        "center_lat": 51.527243,
        "center_long": -0.106841,
        "long_title": "London",
        "place_name": "london",
        "title": "London"
      }
    ],
    "page": 1,
    "sort": "nestoria_rank",
    "status_code": "200",
    "status_text": "OK",
    "thanks": "For using the Nestoria API.",
    "total_pages": 2397,
    "total_results": 47948,
    "listing_type": "buy"
  }
}